Data Visualisation – Week 3 Seminar: Distributions
…
Useful functions: mutate

generate additional variables

psych_df %>% 
  mutate(activity_BMI = activity_score / BMI) %>%
  select(diagnosis, activity_score, BMI, activity_BMI)

# A tibble: 300 × 4
   diagnosis  activity_score   BMI activity_BMI
   <fct>               <dbl> <dbl>        <dbl>
 1 Anxiety              55.8  26.6         2.10
 2 None                 71.2  23.4         3.04
 3 Depression           43.2  25.0         1.73
 4 None                 61.3  28.9         2.12
 5 None                 69.5  16.3         4.27
 6 Anxiety              64.1  28.5         2.25
 7 Depression           32.5  25.1         1.29
 8 None                 66.8  25.0         2.67
 9 Depression           28.5  24.6         1.16
10 Depression           43.5  24.2         1.80
# ℹ 290 more rows

Useful functions: mutate

generate additional variables

psych_df %>% 
  mutate(activity_BMI = activity_score / BMI,
         activity_sleep = activity_score / sleep_hours)%>%
  select(diagnosis, activity_score, BMI, activity_BMI, activity_sleep)

# A tibble: 300 × 5
   diagnosis  activity_score   BMI activity_BMI activity_sleep
   <fct>               <dbl> <dbl>        <dbl>          <dbl>
 1 Anxiety              55.8  26.6         2.10           8.19
 2 None                 71.2  23.4         3.04           9.60
 3 Depression           43.2  25.0         1.73           7.12
 4 None                 61.3  28.9         2.12           9.97
 5 None                 69.5  16.3         4.27           9.96
 6 Anxiety              64.1  28.5         2.25          10.3 
 7 Depression           32.5  25.1         1.29           8.12
 8 None                 66.8  25.0         2.67          10.3 
 9 Depression           28.5  24.6         1.16           5.73
10 Depression           43.5  24.2         1.80           8.95
# ℹ 290 more rows

Useful functions: group_by + mutate

generate additional variables by group

psych_df %>% 
  group_by(diagnosis) %>%
  mutate(stress_diagnosis = mean(stress_score)) %>%
  select(diagnosis, stress_score, stress_diagnosis)

# A tibble: 300 × 3
# Groups:   diagnosis [3]
   diagnosis  stress_score stress_diagnosis
   <fct>             <dbl>            <dbl>
 1 Anxiety           26.4              30.4
 2 None              29.0              16.5
 3 Depression        30.0              28.3
 4 None              17.4              16.5
 5 None              19.7              16.5
 6 Anxiety           26.0              30.4
 7 Depression        23.7              28.3
 8 None               3.61             16.5
 9 Depression        21.5              28.3
10 Depression        34.0              28.3
# ℹ 290 more rows

Useful functions: group_by + mutate

generate additional variables by group

psych_df %>% 
  group_by(diagnosis, clinic) %>%
  mutate(stress_diagnosis = mean(stress_score))%>%
  select(diagnosis, clinic, stress_score, stress_diagnosis)

# A tibble: 300 × 4
# Groups:   diagnosis, clinic [9]
   diagnosis  clinic stress_score stress_diagnosis
   <fct>      <chr>         <dbl>            <dbl>
 1 Anxiety    South         26.4              30.7
 2 None       South         29.0              17.3
 3 Depression North         30.0              28.0
 4 None       South         17.4              17.3
 5 None       North         19.7              16.5
 6 Anxiety    North         26.0              29.2
 7 Depression South         23.7              27.7
 8 None       East           3.61             15.7
 9 Depression North         21.5              28.0
10 Depression East          34.0              29.1
# ℹ 290 more rows

Useful functions: ifelse

generate additional variables by group

psych_df %>% 
  group_by(diagnosis) %>%
  mutate(stress_diagnosis = mean(stress_score),
         stress_binary = ifelse(stress_score > stress_diagnosis, "high", "typical"))%>%
  select(diagnosis, stress_score, stress_diagnosis, stress_binary)

# A tibble: 300 × 4
# Groups:   diagnosis [3]
   diagnosis  stress_score stress_diagnosis stress_binary
   <fct>             <dbl>            <dbl> <chr>        
 1 Anxiety           26.4              30.4 typical      
 2 None              29.0              16.5 high         
 3 Depression        30.0              28.3 high         
 4 None              17.4              16.5 high         
 5 None              19.7              16.5 high         
 6 Anxiety           26.0              30.4 typical      
 7 Depression        23.7              28.3 typical      
 8 None               3.61             16.5 typical      
 9 Depression        21.5              28.3 typical      
10 Depression        34.0              28.3 high         
# ℹ 290 more rows
…
