Week 6 Seminar: Time Series and Line Graphs – Data Visualisation
…
Working with dates

combine year and season into date

telehealth %>%
  select(year, season, month, year_month)

# A tibble: 12,000 × 4
    year season month year_month
   <int> <fct>  <dbl> <date>    
 1  2021 winter     1 2021-01-01
 2  2021 winter     1 2021-01-01
 3  2021 winter     1 2021-01-01
 4  2021 spring     4 2021-04-01
 5  2021 spring     4 2021-04-01
 6  2021 spring     4 2021-04-01
 7  2021 summer     7 2021-07-01
 8  2021 summer     7 2021-07-01
 9  2021 summer     7 2021-07-01
10  2021 autumn    10 2021-10-01
# ℹ 11,990 more rows
…
Working with times

parse mmss with lubridate::ms() and hms::hms()

telehealth <- telehealth %>%
  mutate(
    mmss_period = ms(mmss), # Parse "mm:ss" (or "mm:ss.s") into a 'Period'
    mmss_time = hms::hms(mmss_period), # Convert into hours:minutes:seconds (hms) format
  )

telehealth %>%
  select(metric, mmss, mmss_period, mmss_time)

# A tibble: 12,000 × 4
   metric          mmss     mmss_period mmss_time 
   <fct>           <chr>    <Period>    <time>    
 1 first_response  06:30.7  6M 30.7S    00:06:30.7
 2 handle_time     21:12.9  21M 12.9S   00:21:12.9
 3 resolution_time 116:08.0 116M 8S     01:56:08.0
 4 first_response  04:56.7  4M 56.7S    00:04:56.7
 5 handle_time     17:01.3  17M 1.3S    00:17:01.3
 6 resolution_time 85:54.5  85M 54.5S   01:25:54.5
 7 first_response  05:06.0  5M 6S       00:05:06.0
 8 handle_time     14:51.0  14M 51S     00:14:51.0
 9 resolution_time 82:37.1  82M 37.1S   01:22:37.1
10 first_response  05:44.5  5M 44.5S    00:05:44.5
# ℹ 11,990 more rows
…
